Lab6/Lab6_Part2_VHDL_ROM/simulation/qsim/Lab6_Part2_VHDL_ROM.msim.vcd
$comment
	File created using the following command:
		vcd file Lab6_Part2_VHDL_ROM.msim.vcd -direction
$end
$date
	Tue Nov 05 12:12:26 2019
$end
$version
	ModelSim Version 10.5b
$end
$timescale
	1ps
$end

$scope module lab6_part2_vhdl_rom_vhd_vec_tst $end
$var wire 1 ! A [14] $end
$var wire 1 " A [13] $end
$var wire 1 # A [12] $end
$var wire 1 $ A [11] $end
$var wire 1 % A [10] $end
$var wire 1 & A [9] $end
$var wire 1 ' A [8] $end
$var wire 1 ( A [7] $end
$var wire 1 ) A [6] $end
$var wire 1 * A [5] $end
$var wire 1 + A [4] $end
$var wire 1 , A [3] $end
$var wire 1 - A [2] $end
$var wire 1 . A [1] $end
$var wire 1 / A [0] $end
$var wire 1 0 CLK $end
$var wire 1 1 COUT $end
$var wire 1 2 Data [3] $end
$var wire 1 3 Data [2] $end
$var wire 1 4 Data [1] $end
$var wire 1 5 Data [0] $end
$var wire 1 6 IR0 $end
$var wire 1 7 IR1 $end
$var wire 1 8 IR2 $end
$var wire 1 9 IRLD $end
$var wire 1 : MemCLK $end
$var wire 1 ; MSA [1] $end
$var wire 1 < MSA [0] $end
$var wire 1 = MSB [1] $end
$var wire 1 > MSB [0] $end
$var wire 1 ? MSC [2] $end
$var wire 1 @ MSC [1] $end
$var wire 1 A MSC [0] $end
$var wire 1 B OUTPUT [3] $end
$var wire 1 C OUTPUT [2] $end
$var wire 1 D OUTPUT [1] $end
$var wire 1 E OUTPUT [0] $end
$var wire 1 F PCINC $end
$var wire 1 G PCLD $end
$var wire 1 H Q0 $end
$var wire 1 I Q1 $end
$var wire 1 J REGA [3] $end
$var wire 1 K REGA [2] $end
$var wire 1 L REGA [1] $end
$var wire 1 M REGA [0] $end
$var wire 1 N REGB [3] $end
$var wire 1 O REGB [2] $end
$var wire 1 P REGB [1] $end
$var wire 1 Q REGB [0] $end
$var wire 1 R Reset $end

$scope module i1 $end
$var wire 1 S gnd $end
$var wire 1 T vcc $end
$var wire 1 U unknown $end
$var wire 1 V devoe $end
$var wire 1 W devclrn $end
$var wire 1 X devpor $end
$var wire 1 Y ww_devoe $end
$var wire 1 Z ww_devclrn $end
$var wire 1 [ ww_devpor $end
$var wire 1 \ ww_IRLD $end
$var wire 1 ] ww_IR2 $end
$var wire 1 ^ ww_Reset $end
$var wire 1 _ ww_CLK $end
$var wire 1 ` ww_MemCLK $end
$var wire 1 a ww_Data [3] $end
$var wire 1 b ww_Data [2] $end
$var wire 1 c ww_Data [1] $end
$var wire 1 d ww_Data [0] $end
$var wire 1 e ww_A [14] $end
$var wire 1 f ww_A [13] $end
$var wire 1 g ww_A [12] $end
$var wire 1 h ww_A [11] $end
$var wire 1 i ww_A [10] $end
$var wire 1 j ww_A [9] $end
$var wire 1 k ww_A [8] $end
$var wire 1 l ww_A [7] $end
$var wire 1 m ww_A [6] $end
$var wire 1 n ww_A [5] $end
$var wire 1 o ww_A [4] $end
$var wire 1 p ww_A [3] $end
$var wire 1 q ww_A [2] $end
$var wire 1 r ww_A [1] $end
$var wire 1 s ww_A [0] $end
$var wire 1 t ww_PCINC $end
$var wire 1 u ww_PCLD $end
$var wire 1 v ww_IR1 $end
$var wire 1 w ww_IR0 $end
$var wire 1 x ww_Q1 $end
$var wire 1 y ww_Q0 $end
$var wire 1 z ww_COUT $end
$var wire 1 { ww_MSA [1] $end
$var wire 1 | ww_MSA [0] $end
$var wire 1 } ww_MSB [1] $end
$var wire 1 ~ ww_MSB [0] $end
$var wire 1 !! ww_MSC [2] $end
$var wire 1 "! ww_MSC [1] $end
$var wire 1 #! ww_MSC [0] $end
$var wire 1 $! ww_OUTPUT [3] $end
$var wire 1 %! ww_OUTPUT [2] $end
$var wire 1 &! ww_OUTPUT [1] $end
$var wire 1 '! ww_OUTPUT [0] $end
$var wire 1 (! ww_REGA [3] $end
$var wire 1 )! ww_REGA [2] $end
$var wire 1 *! ww_REGA [1] $end
$var wire 1 +! ww_REGA [0] $end
$var wire 1 ,! ww_REGB [3] $end
$var wire 1 -! ww_REGB [2] $end
$var wire 1 .! ww_REGB [1] $end
$var wire 1 /! ww_REGB [0] $end
$var wire 1 0! \inst27~clkctrl_INCLK_bus\ [3] $end
$var wire 1 1! \inst27~clkctrl_INCLK_bus\ [2] $end
$var wire 1 2! \inst27~clkctrl_INCLK_bus\ [1] $end
$var wire 1 3! \inst27~clkctrl_INCLK_bus\ [0] $end
$var wire 1 4! \MemCLK~inputclkctrl_INCLK_bus\ [3] $end
$var wire 1 5! \MemCLK~inputclkctrl_INCLK_bus\ [2] $end
$var wire 1 6! \MemCLK~inputclkctrl_INCLK_bus\ [1] $end
$var wire 1 7! \MemCLK~inputclkctrl_INCLK_bus\ [0] $end
$var wire 1 8! \~QUARTUS_CREATED_GND~I_combout\ $end
$var wire 1 9! \~QUARTUS_CREATED_UNVM~~busy\ $end
$var wire 1 :! \IRLD~output_o\ $end
$var wire 1 ;! \IR2~output_o\ $end
$var wire 1 <! \CLK~output_o\ $end
$var wire 1 =! \Data[3]~output_o\ $end
$var wire 1 >! \Data[2]~output_o\ $end
$var wire 1 ?! \Data[1]~output_o\ $end
$var wire 1 @! \Data[0]~output_o\ $end
$var wire 1 A! \A[14]~output_o\ $end
$var wire 1 B! \A[13]~output_o\ $end
$var wire 1 C! \A[12]~output_o\ $end
$var wire 1 D! \A[11]~output_o\ $end
$var wire 1 E! \A[10]~output_o\ $end
$var wire 1 F! \A[9]~output_o\ $end
$var wire 1 G! \A[8]~output_o\ $end
$var wire 1 H! \A[7]~output_o\ $end
$var wire 1 I! \A[6]~output_o\ $end
$var wire 1 J! \A[5]~output_o\ $end
$var wire 1 K! \A[4]~output_o\ $end
$var wire 1 L! \A[3]~output_o\ $end
$var wire 1 M! \A[2]~output_o\ $end
$var wire 1 N! \A[1]~output_o\ $end
$var wire 1 O! \A[0]~output_o\ $end
$var wire 1 P! \PCINC~output_o\ $end
$var wire 1 Q! \PCLD~output_o\ $end
$var wire 1 R! \IR1~output_o\ $end
$var wire 1 S! \IR0~output_o\ $end
$var wire 1 T! \Q1~output_o\ $end
$var wire 1 U! \Q0~output_o\ $end
$var wire 1 V! \COUT~output_o\ $end
$var wire 1 W! \MSA[1]~output_o\ $end
$var wire 1 X! \MSA[0]~output_o\ $end
$var wire 1 Y! \MSB[1]~output_o\ $end
$var wire 1 Z! \MSB[0]~output_o\ $end
$var wire 1 [! \MSC[2]~output_o\ $end
$var wire 1 \! \MSC[1]~output_o\ $end
$var wire 1 ]! \MSC[0]~output_o\ $end
$var wire 1 ^! \OUTPUT[3]~output_o\ $end
$var wire 1 _! \OUTPUT[2]~output_o\ $end
$var wire 1 `! \OUTPUT[1]~output_o\ $end
$var wire 1 a! \OUTPUT[0]~output_o\ $end
$var wire 1 b! \REGA[3]~output_o\ $end
$var wire 1 c! \REGA[2]~output_o\ $end
$var wire 1 d! \REGA[1]~output_o\ $end
$var wire 1 e! \REGA[0]~output_o\ $end
$var wire 1 f! \REGB[3]~output_o\ $end
$var wire 1 g! \REGB[2]~output_o\ $end
$var wire 1 h! \REGB[1]~output_o\ $end
$var wire 1 i! \REGB[0]~output_o\ $end
$var wire 1 j! \MemCLK~input_o\ $end
$var wire 1 k! \MemCLK~inputclkctrl_outclk\ $end
$var wire 1 l! \inst27~0_combout\ $end
$var wire 1 m! \inst27~feeder_combout\ $end
$var wire 1 n! \Reset~input_o\ $end
$var wire 1 o! \inst27~q\ $end
$var wire 1 p! \inst27~clkctrl_outclk\ $end
$var wire 1 q! \inst14|sub|86~combout\ $end
$var wire 1 r! \inst14|sub|87~q\ $end
$var wire 1 s! \inst14|sub|106~0_combout\ $end
$var wire 1 t! \inst14|sub|102~combout\ $end
$var wire 1 u! \inst14|sub|99~q\ $end
$var wire 1 v! \inst334|PCLD~combout\ $end
$var wire 1 w! \inst14|sub|108~combout\ $end
$var wire 1 x! \inst14|sub|110~q\ $end
$var wire 1 y! \inst11|Mux0~0_combout\ $end
$var wire 1 z! \inst11|D_sig[2]~feeder_combout\ $end
$var wire 1 {! \inst3~q\ $end
$var wire 1 |! \inst11|Mux1~0_combout\ $end
$var wire 1 }! \inst4~q\ $end
$var wire 1 ~! \inst334|D1~0_combout\ $end
$var wire 1 !" \inst334|D0~combout\ $end
$var wire 1 "" \inst21~q\ $end
$var wire 1 #" \inst14|sub|75~combout\ $end
$var wire 1 $" \inst14|sub|9~q\ $end
$var wire 1 %" \inst11|Mux2~0_combout\ $end
$var wire 1 &" \inst11|D_sig[0]~feeder_combout\ $end
$var wire 1 '" \inst5~q\ $end
$var wire 1 (" \inst334|D1~1_combout\ $end
$var wire 1 )" \inst17~q\ $end
$var wire 1 *" \inst334|MSA0~0_combout\ $end
$var wire 1 +" \inst334|PCINC~0_combout\ $end
$var wire 1 ," \inst10|inst900|9~3_combout\ $end
$var wire 1 -" \inst10|inst900|9~7_combout\ $end
$var wire 1 ." \inst334|MSB0~0_combout\ $end
$var wire 1 /" \inst334|MSA0~combout\ $end
$var wire 1 0" \inst334|MSA1~0_combout\ $end
$var wire 1 1" \inst334|MSA1~combout\ $end
$var wire 1 2" \inst10|inst5|10~0_combout\ $end
$var wire 1 3" \inst334|MSB0~1_combout\ $end
$var wire 1 4" \inst334|MSC0~0_combout\ $end
$var wire 1 5" \inst334|MSC0~1_combout\ $end
$var wire 1 6" \inst10|inst47|sub|81~0_combout\ $end
$var wire 1 7" \inst334|MSA1~1_combout\ $end
$var wire 1 8" \inst10|inst50|sub|81~4_combout\ $end
$var wire 1 9" \inst10|inst44|sub|81~6_combout\ $end
$var wire 1 :" \inst10|inst6|10~0_combout\ $end
$var wire 1 ;" \inst10|inst6|10~1_combout\ $end
$var wire 1 <" \inst10|inst36~q\ $end
$var wire 1 =" \inst10|inst50|sub|81~2_combout\ $end
$var wire 1 >" \inst10|inst50|sub|81~3_combout\ $end
$var wire 1 ?" \inst10|inst100|10~0_combout\ $end
$var wire 1 @" \inst10|inst100|10~1_combout\ $end
$var wire 1 A" \inst10|inst16~q\ $end
$var wire 1 B" \inst10|inst6|9~0_combout\ $end
$var wire 1 C" \inst10|inst48|sub|81~1_combout\ $end
$var wire 1 D" \inst10|inst48|sub|81~2_combout\ $end
$var wire 1 E" \inst10|inst6|9~1_combout\ $end
$var wire 1 F" \inst10|inst33~q\ $end
$var wire 1 G" \inst10|inst48|sub|81~3_combout\ $end
$var wire 1 H" \inst10|inst48|sub|81~4_combout\ $end
$var wire 1 I" \inst10|inst48|sub|81~0_combout\ $end
$var wire 1 J" \inst10|inst100|9~0_combout\ $end
$var wire 1 K" \inst10|inst100|9~1_combout\ $end
$var wire 1 L" \inst10|inst18~q\ $end
$var wire 1 M" \inst10|inst42|sub|105~0_combout\ $end
$var wire 1 N" \inst10|inst47|sub|81~2_combout\ $end
$var wire 1 O" \inst10|inst47|sub|81~1_combout\ $end
$var wire 1 P" \inst10|inst47|sub|81~3_combout\ $end
$var wire 1 Q" \inst10|inst47|sub|81~4_combout\ $end
$var wire 1 R" \inst10|inst47|sub|81~5_combout\ $end
$var wire 1 S" \inst10|inst5|10~1_combout\ $end
$var wire 1 T" \inst10|inst30~q\ $end
$var wire 1 U" \inst10|inst900|10~0_combout\ $end
$var wire 1 V" \inst10|inst900|10~1_combout\ $end
$var wire 1 W" \inst10|inst12~q\ $end
$var wire 1 X" \inst10|inst44|sub|81~2_combout\ $end
$var wire 1 Y" \inst10|inst5|9~0_combout\ $end
$var wire 1 Z" \inst10|inst5|9~1_combout\ $end
$var wire 1 [" \inst10|inst27~q\ $end
$var wire 1 \" \inst10|inst44|sub|81~4_combout\ $end
$var wire 1 ]" \inst10|inst42|sub|106~0_combout\ $end
$var wire 1 ^" \inst10|inst44|sub|81~3_combout\ $end
$var wire 1 _" \inst10|inst44|sub|81~5_combout\ $end
$var wire 1 `" \inst10|inst900|9~6_combout\ $end
$var wire 1 a" \inst10|inst~q\ $end
$var wire 1 b" \inst10|inst42|sub|107~0_combout\ $end
$var wire 1 c" \inst11|D_sig\ [7] $end
$var wire 1 d" \inst11|D_sig\ [6] $end
$var wire 1 e" \inst11|D_sig\ [5] $end
$var wire 1 f" \inst11|D_sig\ [4] $end
$var wire 1 g" \inst11|D_sig\ [3] $end
$var wire 1 h" \inst11|D_sig\ [2] $end
$var wire 1 i" \inst11|D_sig\ [1] $end
$var wire 1 j" \inst11|D_sig\ [0] $end
$var wire 1 k" \inst334|ALT_INV_MSB0~1_combout\ $end
$upscope $end
$upscope $end
$enddefinitions $end
#0
$dumpvars
00
01
06
07
08
19
0:
0F
0G
0H
0I
0R
0S
1T
xU
1V
1W
1X
1Y
1Z
1[
1\
0]
0^
0_
0`
0t
0u
0v
0w
0x
0y
0z
08!
z9!
1:!
0;!
0<!
0=!
0>!
0?!
0@!
0A!
1B!
1C!
1D!
1E!
1F!
0G!
0H!
1I!
1J!
1K!
0L!
0M!
0N!
0O!
0P!
0Q!
0R!
0S!
0T!
0U!
0V!
0W!
1X!
1Y!
0Z!
0[!
0\!
0]!
0^!
0_!
0`!
0a!
0b!
0c!
0d!
0e!
0f!
0g!
0h!
0i!
0j!
0k!
1l!
1m!
0n!
0o!
0p!
0q!
0r!
0s!
0t!
0u!
0v!
0w!
0x!
0y!
0z!
0{!
0|!
0}!
0~!
1!"
0""
0#"
0$"
1%"
1&"
0'"
0("
0)"
1*"
0+"
0,"
0-"
0."
1/"
00"
01"
02"
03"
04"
05"
06"
07"
08"
09"
0:"
0;"
0<"
0="
0>"
0?"
0@"
0A"
0B"
0C"
0D"
0E"
0F"
0G"
0H"
0I"
0J"
0K"
0L"
0M"
1N"
0O"
0P"
0Q"
0R"
0S"
0T"
0U"
0V"
0W"
0X"
0Y"
0Z"
0["
0\"
0]"
0^"
0_"
0`"
0a"
0b"
1k"
0a
0b
0c
0d
0e
1f
1g
1h
1i
1j
0k
0l
1m
1n
1o
0p
0q
0r
0s
0{
1|
1}
0~
0!!
0"!
0#!
0$!
0%!
0&!
0'!
0(!
0)!
0*!
0+!
0,!
0-!
0.!
0/!
xc"
xd"
xe"
xf"
xg"
0h"
0i"
0j"
14!
15!
16!
07!
10!
11!
12!
03!
0!
1"
1#
1$
1%
1&
0'
0(
1)
1*
1+
0,
0-
0.
0/
02
03
04
05
0;
1<
1=
0>
0?
0@
0A
0B
0C
0D
0E
0J
0K
0L
0M
0N
0O
0P
0Q
$end
#10000
1:
1`
1j!
17!
1k!
1j"
1@!
1d
15
#20000
0:
0`
0j!
07!
0k!
#30000
1:
1`
1j!
17!
1k!
#40000
0:
0`
0j!
07!
0k!
#50000
1:
1`
1j!
17!
1k!
#60000
0:
0`
0j!
07!
0k!
#70000
1:
1`
1j!
17!
1k!
#75000
1R
1^
1n!
#80000
0:
0`
0j!
07!
0k!
#90000
1:
1`
1j!
17!
1k!
1o!
13!
1<!
0l!
1_
0m!
10
1p!
1""
1'"
1S!
1U!
1~!
1#"
1("
0*"
1+"
1."
1w
1y
1P!
0:!
0/"
0!"
16
1H
1t
0\
0X!
1?"
1F
09
0|
1@"
0<
#100000
0:
0`
0j!
07!
0k!
#110000
1:
1`
1j!
17!
1k!
0o!
03!
0<!
1l!
0_
1m!
00
0p!
#120000
0:
0`
0j!
07!
0k!
#130000
1:
1`
1j!
17!
1k!
1o!
13!
1<!
0l!
1_
0m!
10
1p!
0""
1$"
1)"
1A"
1e!
1T!
1O!
0U!
1>"
1y!
1|!
1q!
0~!
0#"
0("
0."
1+!
1x
1s
0y
1a!
1z!
1M
1I
1/
0H
1'!
1E
#140000
0:
0`
0j!
07!
0k!
#150000
1:
1`
1j!
17!
1k!
0o!
1h"
1i"
03!
1?!
1>!
0<!
1J"
1U"
1l!
1c
1b
0_
1m!
1V"
1K"
14
13
00
0p!
#160000
0:
0`
0j!
07!
0k!
#170000
1:
1`
1j!
17!
1k!
1o!
13!
1<!
0l!
1_
0m!
10
1p!
1r!
0$"
0)"
1L"
1W"
1c!
1d!
0T!
0O!
1N!
16"
1O"
1C"
1H"
1*"
0+"
1/"
0y!
0|!
0%"
1)!
1*!
0x
0s
1r
1X!
0P!
1:!
0&"
0z!
0?"
0U"
0V"
1!"
1I"
1D"
1P"
1R"
1L
1K
0I
0/
1.
1|
0t
1\
1_!
1`!
1Q"
1V"
1<
0F
19
1%!
1&!
1D
1C
#180000
0:
0`
0j!
07!
0k!
#190000
1:
1`
1j!
17!
1k!
0o!
0h"
0i"
0j"
03!
0@!
0?!
0>!
0<!
1l!
0d
0c
0b
0_
1m!
05
04
03
00
0p!
#200000
0:
0`
0j!
07!
0k!
#210000
1:
1`
1j!
17!
1k!
1o!
13!
1<!
0l!
1_
0m!
10
1p!
1""
0'"
0S!
1U!
1~!
1#"
0*"
1+"
1."
0w
1y
1P!
0:!
12"
13"
1:"
0!"
06
1H
0k"
1t
0\
1Z!
1;"
1E"
1S"
1F
09
0Y!
1~
0}
1>
0=
#220000
0:
0`
0j!
07!
0k!
#230000
1:
1`
1j!
17!
1k!
0o!
03!
0<!
1l!
0_
1m!
00
0p!
#240000
0:
0`
0j!
07!
0k!
#250000
1:
1`
1j!
17!
1k!
1o!
13!
1<!
0l!
1_
0m!
10
1p!
0""
1$"
1<"
1F"
1T"
1g!
1h!
1i!
1O!
0U!
1]"
1G"
1M"
1%"
0~!
1*"
0+"
0."
1-!
1.!
1/!
1s
0y
0P!
1:!
02"
03"
0:"
1B"
1!"
1&"
1Q
1P
1O
1/
0H
1k"
0t
1\
0Z!
0F
19
1Y!
0~
1}
0>
1=
#260000
0:
0`
0j!
07!
0k!
#270000
1:
1`
1j!
17!
1k!
0o!
1j"
03!
1@!
0<!
1l!
1d
0_
1m!
15
00
0p!
#280000
0:
0`
0j!
07!
0k!
#290000
1:
1`
1j!
17!
1k!
1o!
13!
1<!
0l!
1_
0m!
10
1p!
1""
1'"
1S!
1U!
0q!
1s!
1~!
0#"
1("
0*"
1+"
1."
1w
1y
1P!
0:!
0/"
0!"
1t!
16
1H
1t
0\
0X!
1?"
0@"
0J"
0V"
1F
09
0|
0K"
1@"
0<
#300000
0:
0`
0j!
07!
0k!
#310000
1:
1`
1j!
17!
1k!
0o!
03!
0<!
1l!
0_
1m!
00
0p!
#320000
0:
0`
0j!
07!
0k!
#330000
1:
1`
1j!
17!
1k!
1o!
13!
1<!
0l!
1_
0m!
10
1p!
0r!
1u!
0""
0$"
1)"
0L"
0W"
0c!
0d!
1T!
0O!
0U!
1M!
0N!
06"
0C"
0~!
1#"
0("
0."
0t!
1w!
0s!
1|!
0)!
0*!
1x
0s
0y
1q
0r
1t!
0w!
0D"
0R"
0L
0K
1I
0/
0.
1-
0H
0_!
0`!
0%!
0&!
0D
0C
#340000
0:
0`
0j!
07!
0k!
#350000
1:
1`
1j!
17!
1k!
0o!
1i"
03!
1?!
0<!
1J"
1l!
1c
0_
1m!
1K"
14
00
0p!
#360000
0:
0`
0j!
07!
0k!
#370000
1:
1`
1j!
17!
1k!
1o!
13!
1<!
0l!
1_
0m!
10
1p!
1$"
0)"
1L"
1d!
0T!
1O!
1C"
1*"
0+"
1/"
1*!
0x
1s
1X!
0P!
1:!
0?"
1!"
1D"
1L
0I
1/
1|
0t
1\
1`!
1<
0F
19
1&!
1D
#380000
0:
0`
0j!
07!
0k!
#390000
1:
1`
1j!
17!
1k!
0o!
03!
0<!
1l!
0_
1m!
00
0p!
#400000
0:
0`
0j!
07!
0k!
#410000
1:
1`
1j!
17!
1k!
1o!
13!
1<!
0l!
1_
0m!
10
1p!
1}!
1""
1U!
1R!
1q!
0#"
0*"
1+"
1,"
10"
14"
1y
1v
1\!
1P!
0:!
11"
0H"
0I"
0P"
0Q"
1-"
0!"
1H
17
1"!
1t
0\
1W!
1[!
1Q"
1I"
19"
1?"
0D"
0K"
1U"
1@
1F
09
1{
1!!
0`!
0>"
1D"
1K"
1R"
1;
1?
0&!
1_!
1`!
0a!
1V"
0@"
0D
1%!
1&!
0'!
0E
1D
1C
#420000
0:
0`
0j!
07!
0k!
#430000
1:
1`
1j!
17!
1k!
0o!
03!
0<!
1l!
0_
1m!
00
0p!
#440000
0:
0`
0j!
07!
0k!
#450000
1:
1`
1j!
17!
1k!
1o!
13!
1<!
0l!
1_
0m!
10
1p!
1r!
0""
0$"
0A"
1W"
1c!
0e!
0O!
0U!
1N!
1X"
0I"
1*"
0+"
0-"
00"
04"
1y!
0|!
0%"
1)!
0+!
0s
0y
1r
0\!
0P!
1:!
0&"
1z!
01"
1H"
1P"
0Q"
1!"
0D"
0K"
1_"
0M
1K
0/
1.
0H
0"!
0t
1\
1^!
0`!
0W!
0[!
1Q"
1I"
16"
09"
0?"
1D"
1K"
0R"
0U"
0X"
0@
0F
19
1$!
0&!
0{
0!!
0_!
1`!
0_"
1R"
0D
1B
0;
0?
0%!
1&!
1_!
0^!
1D
0C
1%!
0$!
1C
0B
#460000
0:
0`
0j!
07!
0k!
#470000
1:
1`
1j!
17!
1k!
0o!
1h"
0i"
0j"
03!
0@!
0?!
1>!
0<!
1l!
0d
0c
1b
0_
1m!
05
04
13
00
0p!
#480000
0:
0`
0j!
07!
0k!
#490000
1:
1`
1j!
17!
1k!
1o!
13!
1<!
0l!
1_
0m!
10
1p!
1{!
0}!
1""
0'"
0S!
1U!
0R!
1;!
1#"
0*"
1+"
1-"
1~!
14"
0w
1y
0v
1]
1P!
0:!
15"
18"
0N"
11"
17"
0!"
06
1H
07
18
1t
0\
1W!
1[!
1]!
1^"
19"
1?"
1U"
06"
1="
0H"
1F
09
1{
1!!
1#!
0I"
1>"
1_"
1;
1A
1?
1^!
1a!
1`"
1@"
0D"
0K"
1$!
1'!
0`!
1E
1B
0&!
0D
#500000
0:
0`
0j!
07!
0k!
#510000
1:
1`
1j!
17!
1k!
0o!
03!
0<!
1l!
0_
1m!
00
0p!
#520000
0:
0`
0j!
07!
0k!
#530000
1:
1`
1j!
17!
1k!
1o!
13!
1<!
0l!
1_
0m!
10
1p!
0""
1$"
1A"
0L"
1a"
1b!
0d!
1e!
1O!
0U!
0^"
1b"
1H"
0>"
0G"
0y!
1|!
0~!
1*"
0+"
0-"
04"
1(!
0*!
1+!
1s
0y
0P!
1:!
0a!
1V!
05"
08"
09"
0C"
1N"
1\"
1!"
01"
07"
0z!
0H"
0@"
1I"
0_"
1M
0L
1J
1/
0H
0t
1\
0'!
1z
0^!
0W!
0[!
0]!
0I"
0?"
0J"
1K"
0R"
0U"
1_"
1>"
16"
0="
1G"
0F
19
0E
11
0$!
0{
0!!
0#!
1a!
1^!
0_!
1H"
1R"
1@"
0K"
0B
0;
0A
0?
1'!
1$!
0%!
1_!
1I"
1E
0C
1B
1%!
1C
#540000
0:
0`
0j!
07!
0k!
#550000
1:
1`
1j!
17!
1k!
0o!
0h"
1i"
03!
1?!
0>!
0<!
1l!
1c
0b
0_
1m!
14
03
00
0p!
#560000
0:
0`
0j!
07!
0k!
#570000
1:
1`
1j!
17!
1k!
1o!
13!
1<!
0l!
1_
0m!
10
1p!
0{!
1}!
1""
1U!
1R!
0;!
0q!
1s!
0#"
0*"
1+"
1-"
10"
14"
1y
1v
0]
1\!
1P!
0:!
15"
18"
1C"
0N"
0\"
11"
0H"
0P"
0!"
0t!
1w!
1H
17
08
1"!
1t
0\
1W!
1[!
1]!
0Q"
08"
19"
1?"
1J"
1K"
1U"
0_"
1P"
1D"
0>"
06"
1="
0G"
1H"
1@
1F
09
1{
1!!
1#!
0a!
1`!
0^!
1Q"
0`"
0@"
0="
1>"
0R"
1;
1A
1?
0'!
1&!
0$!
0_!
1a!
0V"
1@"
0>"
1R"
0E
1D
0B
0%!
1'!
1_!
0a!
1V"
0@"
1E
0C
1%!
0'!
0E
1C
#580000
0:
0`
0j!
07!
0k!
#590000
1:
1`
1j!
17!
1k!
0o!
03!
0<!
1l!
0_
1m!
00
0p!
#600000
0:
0`
0j!
07!
0k!
#610000
1:
1`
1j!
17!
1k!
1o!
13!
1<!
0l!
1_
0m!
10
1p!
0r!
0u!
1x!
0""
0$"
0A"
1L"
0a"
0b!
1d!
0e!
0O!
0U!
1L!
0M!
0N!
0b"
1="
0Q"
1G"
1*"
0+"
0-"
00"
04"
1t!
0s!
0|!
0(!
1*!
0+!
0s
0y
1p
0q
0r
0\!
0P!
1:!
0V!
0t!
05"
1N"
01"
1Q"
1!"
0H"
0R"
1>"
0M
1L
0J
0/
0.
0-
1,
0H
0"!
0t
1\
0z
1a!
0_!
0W!
0[!
0]!
1@"
0V"
0I"
09"
0?"
0U"
16"
0="
1H"
0@
0F
19
01
1'!
0%!
0{
0!!
0#!
1I"
1R"
1V"
0@"
0>"
1E
0C
0;
0A
0?
0a!
1_!
0'!
1%!
0E
1C
#620000
0:
0`
0j!
07!
0k!
#630000
1:
1`
1j!
17!
1k!
0o!
0i"
03!
0?!
0<!
1l!
0c
0_
1m!
04
00
0p!
#640000
0:
0`
0j!
07!
0k!
#650000
1:
1`
1j!
17!
1k!
1o!
13!
1<!
0l!
1_
0m!
10
1p!
0}!
1""
1U!
0R!
1#"
0*"
1+"
1-"
1~!
0,"
1."
1y
0v
1P!
0:!
12"
13"
0B"
0-"
0!"
1H
07
0k"
1t
0\
1Z!
0;"
1F
09
0Y!
1~
0}
1>
0=
#660000
0:
0`
0j!
07!
0k!
#670000
1:
1`
1j!
17!
1k!
0o!
03!
0<!
1l!
0_
1m!
00
0p!
#680000
0:
0`
0j!
07!
0k!
#690000
1:
1`
1j!
17!
1k!
1o!
13!
1<!
0l!
1_
0m!
10
1p!
0""
1$"
0<"
0i!
1O!
0U!
1y!
1%"
0~!
1*"
0+"
0."
0/!
1s
0y
0P!
1:!
02"
03"
1B"
1!"
1&"
1z!
0Q
1/
0H
1k"
0t
1\
0Z!
0F
19
1Y!
0~
1}
0>
1=
#700000
0:
0`
0j!
07!
0k!
#710000
1:
1`
1j!
17!
1k!
0o!
1h"
1j"
03!
1@!
1>!
0<!
1l!
1d
1b
0_
1m!
15
13
00
0p!
#720000
0:
0`
0j!
07!
0k!
#730000
1:
1`
1j!
17!
1k!
1o!
13!
1<!
0l!
1_
0m!
10
1p!
1{!
1""
1'"
1S!
1U!
1;!
1q!
1~!
0#"
1("
0*"
1+"
14"
1w
1y
1]
1P!
0:!
16
1H
18
1t
0\
1F
09
#740000
0:
0`
0j!
07!
0k!
#750000
1:
1`
1j!
17!
1k!
0o!
03!
0<!
1l!
0_
1m!
00
0p!
#760000
0:
0`
0j!
07!
0k!
#770000
1:
1`
1j!
17!
1k!
1o!
13!
1<!
0l!
1_
0m!
10
1p!
1r!
0$"
1)"
1T!
0O!
1N!
1t!
1v!
0~!
0("
0+"
04"
1#"
0q!
0y!
0%"
1x
0s
1r
0P!
1Q!
0&"
0z!
0!"
0w!
1I
0/
1.
0t
1u
0F
1G
#780000
0:
0`
0j!
07!
0k!
#790000
1:
1`
1j!
17!
1k!
0o!
0h"
0j"
03!
0@!
0>!
0<!
1l!
0d
0b
0_
1m!
05
03
00
0p!
#800000
0:
0`
0j!
07!
0k!
#810000
1:
1`
1j!
17!
1k!
1o!
13!
1<!
0l!
1_
0m!
10
1p!
0r!
1u!
0x!
0""
1$"
0)"
0T!
1O!
0U!
0L!
1M!
0N!
0v!
1*"
1|!
1%"
0x
1s
0y
0p
1q
0r
1:!
0Q!
1&"
1!"
0I
1/
0.
1-
0,
0H
1\
0u
19
0G
#820000
0:
0`
0j!
07!
0k!
#830000
1:
1`
1j!
17!
1k!
0o!
1i"
1j"
03!
1@!
1?!
0<!
1l!
1d
1c
0_
1m!
15
14
00
0p!
#840000
0:
0`
0j!
07!
0k!
#850000
1:
1`
1j!
17!
1k!
1o!
13!
1<!
0l!
1_
0m!
10
1p!
0{!
1}!
1""
1U!
1R!
0;!
1q!
0#"
0*"
1+"
1,"
10"
14"
1y
1v
0]
1\!
1P!
0:!
11"
0H"
0P"
0Q"
1-"
0!"
1H
17
08
1"!
1t
0\
1W!
1[!
1Q"
0I"
06"
19"
1?"
1U"
1X"
1@
1F
09
1{
1!!
1_"
0D"
0K"
1;
1?
0`!
1^!
1`"
0&!
1$!
0D
1B
#860000
0:
0`
0j!
07!
0k!
#870000
1:
1`
1j!
17!
1k!
0o!
03!
0<!
1l!
0_
1m!
00
0p!
#880000
0:
0`
0j!
07!
0k!
#890000
1:
1`
1j!
17!
1k!
1o!
13!
1<!
0l!
1_
0m!
10
1p!
1r!
0""
0$"
0L"
1a"
1b!
0d!
0O!
0U!
1N!
1\"
1b"
0C"
0M"
0Q"
1*"
0+"
0-"
00"
04"
1y!
0|!
0%"
1(!
0*!
0s
0y
1r
0\!
0P!
1:!
1V!
0&"
1z!
01"
1H"
1!"
0R"
1P"
0L
1J
0/
1.
0H
0"!
0t
1\
1z
0_!
0W!
0[!
1Q"
0V"
1I"
16"
09"
0?"
0J"
1K"
0U"
0X"
0@
0F
19
11
0%!
0{
0!!
1V"
0K"
1R"
0C
0;
0?
1_!
1%!
1C
#900000
0:
0`
0j!
07!
0k!
#910000
1:
1`
1j!
17!
1k!
0o!
1h"
0i"
0j"
03!
0@!
0?!
1>!
0<!
1l!
0d
0c
1b
0_
1m!
05
04
13
00
0p!
#920000
0:
0`
0j!
07!
0k!
