Lab6/Lab6_Part2/simulation/qsim/Lab6_Part2.msim.vcd
$comment
	File created using the following command:
		vcd file Lab6_Part2.msim.vcd -direction
$end
$date
	Tue Nov 05 12:15:14 2019
$end
$version
	ModelSim Version 10.5b
$end
$timescale
	1ps
$end

$scope module lab6_part2_vhd_vec_tst $end
$var wire 1 ! A [14] $end
$var wire 1 " A [13] $end
$var wire 1 # A [12] $end
$var wire 1 $ A [11] $end
$var wire 1 % A [10] $end
$var wire 1 & A [9] $end
$var wire 1 ' A [8] $end
$var wire 1 ( A [7] $end
$var wire 1 ) A [6] $end
$var wire 1 * A [5] $end
$var wire 1 + A [4] $end
$var wire 1 , A [3] $end
$var wire 1 - A [2] $end
$var wire 1 . A [1] $end
$var wire 1 / A [0] $end
$var wire 1 0 CIN $end
$var wire 1 1 CLK $end
$var wire 1 2 COUT $end
$var wire 1 3 Data [3] $end
$var wire 1 4 Data [2] $end
$var wire 1 5 Data [1] $end
$var wire 1 6 Data [0] $end
$var wire 1 7 IR0 $end
$var wire 1 8 IR1 $end
$var wire 1 9 IR2 $end
$var wire 1 : IRLD $end
$var wire 1 ; MemCLK $end
$var wire 1 < MSA [1] $end
$var wire 1 = MSA [0] $end
$var wire 1 > MSB [1] $end
$var wire 1 ? MSB [0] $end
$var wire 1 @ MSC [2] $end
$var wire 1 A MSC [1] $end
$var wire 1 B MSC [0] $end
$var wire 1 C OUTPUT [3] $end
$var wire 1 D OUTPUT [2] $end
$var wire 1 E OUTPUT [1] $end
$var wire 1 F OUTPUT [0] $end
$var wire 1 G PCINC $end
$var wire 1 H PCLD $end
$var wire 1 I Q0 $end
$var wire 1 J Q1 $end
$var wire 1 K REGA [3] $end
$var wire 1 L REGA [2] $end
$var wire 1 M REGA [1] $end
$var wire 1 N REGA [0] $end
$var wire 1 O REGB [3] $end
$var wire 1 P REGB [2] $end
$var wire 1 Q REGB [1] $end
$var wire 1 R REGB [0] $end
$var wire 1 S Reset $end

$scope module i1 $end
$var wire 1 T gnd $end
$var wire 1 U vcc $end
$var wire 1 V unknown $end
$var wire 1 W devoe $end
$var wire 1 X devclrn $end
$var wire 1 Y devpor $end
$var wire 1 Z ww_devoe $end
$var wire 1 [ ww_devclrn $end
$var wire 1 \ ww_devpor $end
$var wire 1 ] ww_IRLD $end
$var wire 1 ^ ww_IR2 $end
$var wire 1 _ ww_Reset $end
$var wire 1 ` ww_CLK $end
$var wire 1 a ww_MemCLK $end
$var wire 1 b ww_Data [3] $end
$var wire 1 c ww_Data [2] $end
$var wire 1 d ww_Data [1] $end
$var wire 1 e ww_Data [0] $end
$var wire 1 f ww_A [14] $end
$var wire 1 g ww_A [13] $end
$var wire 1 h ww_A [12] $end
$var wire 1 i ww_A [11] $end
$var wire 1 j ww_A [10] $end
$var wire 1 k ww_A [9] $end
$var wire 1 l ww_A [8] $end
$var wire 1 m ww_A [7] $end
$var wire 1 n ww_A [6] $end
$var wire 1 o ww_A [5] $end
$var wire 1 p ww_A [4] $end
$var wire 1 q ww_A [3] $end
$var wire 1 r ww_A [2] $end
$var wire 1 s ww_A [1] $end
$var wire 1 t ww_A [0] $end
$var wire 1 u ww_PCINC $end
$var wire 1 v ww_PCLD $end
$var wire 1 w ww_IR1 $end
$var wire 1 x ww_IR0 $end
$var wire 1 y ww_Q1 $end
$var wire 1 z ww_Q0 $end
$var wire 1 { ww_COUT $end
$var wire 1 | ww_CIN $end
$var wire 1 } ww_MSA [1] $end
$var wire 1 ~ ww_MSA [0] $end
$var wire 1 !! ww_MSB [1] $end
$var wire 1 "! ww_MSB [0] $end
$var wire 1 #! ww_MSC [2] $end
$var wire 1 $! ww_MSC [1] $end
$var wire 1 %! ww_MSC [0] $end
$var wire 1 &! ww_OUTPUT [3] $end
$var wire 1 '! ww_OUTPUT [2] $end
$var wire 1 (! ww_OUTPUT [1] $end
$var wire 1 )! ww_OUTPUT [0] $end
$var wire 1 *! ww_REGA [3] $end
$var wire 1 +! ww_REGA [2] $end
$var wire 1 ,! ww_REGA [1] $end
$var wire 1 -! ww_REGA [0] $end
$var wire 1 .! ww_REGB [3] $end
$var wire 1 /! ww_REGB [2] $end
$var wire 1 0! ww_REGB [1] $end
$var wire 1 1! ww_REGB [0] $end
$var wire 1 2! \inst7|altsyncram_component|auto_generated|ram_block1a8_PORTAADDR_bus\ [3] $end
$var wire 1 3! \inst7|altsyncram_component|auto_generated|ram_block1a8_PORTAADDR_bus\ [2] $end
$var wire 1 4! \inst7|altsyncram_component|auto_generated|ram_block1a8_PORTAADDR_bus\ [1] $end
$var wire 1 5! \inst7|altsyncram_component|auto_generated|ram_block1a8_PORTAADDR_bus\ [0] $end
$var wire 1 6! \inst7|altsyncram_component|auto_generated|ram_block1a8_PORTADATAOUT_bus\ [19] $end
$var wire 1 7! \inst7|altsyncram_component|auto_generated|ram_block1a8_PORTADATAOUT_bus\ [18] $end
$var wire 1 8! \inst7|altsyncram_component|auto_generated|ram_block1a8_PORTADATAOUT_bus\ [17] $end
$var wire 1 9! \inst7|altsyncram_component|auto_generated|ram_block1a8_PORTADATAOUT_bus\ [16] $end
$var wire 1 :! \inst7|altsyncram_component|auto_generated|ram_block1a8_PORTADATAOUT_bus\ [15] $end
$var wire 1 ;! \inst7|altsyncram_component|auto_generated|ram_block1a8_PORTADATAOUT_bus\ [14] $end
$var wire 1 <! \inst7|altsyncram_component|auto_generated|ram_block1a8_PORTADATAOUT_bus\ [13] $end
$var wire 1 =! \inst7|altsyncram_component|auto_generated|ram_block1a8_PORTADATAOUT_bus\ [12] $end
$var wire 1 >! \inst7|altsyncram_component|auto_generated|ram_block1a8_PORTADATAOUT_bus\ [11] $end
$var wire 1 ?! \inst7|altsyncram_component|auto_generated|ram_block1a8_PORTADATAOUT_bus\ [10] $end
$var wire 1 @! \inst7|altsyncram_component|auto_generated|ram_block1a8_PORTADATAOUT_bus\ [9] $end
$var wire 1 A! \inst7|altsyncram_component|auto_generated|ram_block1a8_PORTADATAOUT_bus\ [8] $end
$var wire 1 B! \inst7|altsyncram_component|auto_generated|ram_block1a8_PORTADATAOUT_bus\ [7] $end
$var wire 1 C! \inst7|altsyncram_component|auto_generated|ram_block1a8_PORTADATAOUT_bus\ [6] $end
$var wire 1 D! \inst7|altsyncram_component|auto_generated|ram_block1a8_PORTADATAOUT_bus\ [5] $end
$var wire 1 E! \inst7|altsyncram_component|auto_generated|ram_block1a8_PORTADATAOUT_bus\ [4] $end
$var wire 1 F! \inst7|altsyncram_component|auto_generated|ram_block1a8_PORTADATAOUT_bus\ [3] $end
$var wire 1 G! \inst7|altsyncram_component|auto_generated|ram_block1a8_PORTADATAOUT_bus\ [2] $end
$var wire 1 H! \inst7|altsyncram_component|auto_generated|ram_block1a8_PORTADATAOUT_bus\ [1] $end
$var wire 1 I! \inst7|altsyncram_component|auto_generated|ram_block1a8_PORTADATAOUT_bus\ [0] $end
$var wire 1 J! \~QUARTUS_CREATED_GND~I_combout\ $end
$var wire 1 K! \MemCLK~input_o\ $end
$var wire 1 L! \inst27~0_combout\ $end
$var wire 1 M! \Reset~input_o\ $end
$var wire 1 N! \inst27~q\ $end
$var wire 1 O! \MemCLK~inputCLKENA0_outclk\ $end
$var wire 1 P! \inst14|sub|86~combout\ $end
$var wire 1 Q! \inst14|sub|87~q\ $end
$var wire 1 R! \inst14|sub|99~DUPLICATE_q\ $end
$var wire 1 S! \inst14|sub|102~combout\ $end
$var wire 1 T! \inst14|sub|99~q\ $end
$var wire 1 U! \inst14|sub|110~DUPLICATE_q\ $end
$var wire 1 V! \inst14|sub|108~combout\ $end
$var wire 1 W! \inst14|sub|110~q\ $end
$var wire 1 X! \inst7|altsyncram_component|auto_generated|ram_block1a10\ $end
$var wire 1 Y! \inst3~q\ $end
$var wire 1 Z! \inst334|D0~combout\ $end
$var wire 1 [! \inst21~DUPLICATE_q\ $end
$var wire 1 \! \inst14|sub|75~combout\ $end
$var wire 1 ]! \inst14|sub|9~q\ $end
$var wire 1 ^! \inst7|altsyncram_component|auto_generated|ram_block1a9\ $end
$var wire 1 _! \inst4~q\ $end
$var wire 1 `! \inst21~q\ $end
$var wire 1 a! \inst7|altsyncram_component|auto_generated|ram_block1a8~portadataout\ $end
$var wire 1 b! \inst5~q\ $end
$var wire 1 c! \inst334|D1~0_combout\ $end
$var wire 1 d! \inst17~q\ $end
$var wire 1 e! \inst334|PCINC~0_combout\ $end
$var wire 1 f! \inst7|altsyncram_component|auto_generated|ram_block1a11\ $end
$var wire 1 g! \inst334|PCINC~1_combout\ $end
$var wire 1 h! \inst334|PCLD~combout\ $end
$var wire 1 i! \inst334|MSA1~combout\ $end
$var wire 1 j! \inst334|MSA0~0_combout\ $end
$var wire 1 k! \inst334|MSB1~combout\ $end
$var wire 1 l! \inst13|inst6|9~0_combout\ $end
$var wire 1 m! \inst13|inst33~q\ $end
$var wire 1 n! \inst13|inst30~DUPLICATE_q\ $end
$var wire 1 o! \inst13|inst5|10~0_combout\ $end
$var wire 1 p! \inst13|inst30~q\ $end
$var wire 1 q! \inst13|inst5|9~0_combout\ $end
$var wire 1 r! \inst13|inst27~q\ $end
$var wire 1 s! \inst334|MSA1~1_combout\ $end
$var wire 1 t! \inst334|MSC0~0_combout\ $end
$var wire 1 u! \inst13|inst44|sub|81~2_combout\ $end
$var wire 1 v! \inst13|inst44|sub|81~1_combout\ $end
$var wire 1 w! \inst13|inst44|sub|81~0_combout\ $end
$var wire 1 x! \inst13|inst900|9~0_combout\ $end
$var wire 1 y! \inst13|inst~q\ $end
$var wire 1 z! \inst13|inst47|sub|81~1_combout\ $end
$var wire 1 {! \inst334|MSA1~0_combout\ $end
$var wire 1 |! \CIN~input_o\ $end
$var wire 1 }! \inst13|inst47|sub|81~0_combout\ $end
$var wire 1 ~! \inst13|inst47|sub|81~2_combout\ $end
$var wire 1 !" \inst13|inst900|10~0_combout\ $end
$var wire 1 "" \inst13|inst12~q\ $end
$var wire 1 #" \inst13|inst42|sub|78~combout\ $end
$var wire 1 $" \inst13|inst48|sub|81~1_combout\ $end
$var wire 1 %" \inst13|inst48|sub|81~0_combout\ $end
$var wire 1 &" \inst13|inst100|9~0_combout\ $end
$var wire 1 '" \inst13|inst18~q\ $end
$var wire 1 (" \inst13|inst50|sub|66~combout\ $end
$var wire 1 )" \inst13|inst50|sub|81~0_combout\ $end
$var wire 1 *" \inst13|inst100|10~0_combout\ $end
$var wire 1 +" \inst13|inst16~q\ $end
$var wire 1 ," \inst13|inst36~DUPLICATE_q\ $end
$var wire 1 -" \inst13|inst6|10~0_combout\ $end
$var wire 1 ." \inst13|inst36~q\ $end
$var wire 1 /" \inst13|inst42|sub|105~0_combout\ $end
$var wire 1 0" \inst13|inst42|sub|107~0_combout\ $end
$var wire 1 1" \ALT_INV_CIN~input_o\ $end
$var wire 1 2" \inst13|inst44|sub|ALT_INV_81~2_combout\ $end
$var wire 1 3" \inst13|inst44|sub|ALT_INV_81~1_combout\ $end
$var wire 1 4" \inst13|inst47|sub|ALT_INV_81~1_combout\ $end
$var wire 1 5" \inst13|inst47|sub|ALT_INV_81~0_combout\ $end
$var wire 1 6" \inst13|inst50|sub|ALT_INV_66~combout\ $end
$var wire 1 7" \inst13|inst48|sub|ALT_INV_81~0_combout\ $end
$var wire 1 8" \inst13|inst42|sub|ALT_INV_78~combout\ $end
$var wire 1 9" \inst13|inst44|sub|ALT_INV_81~0_combout\ $end
$var wire 1 :" \inst334|ALT_INV_MSA1~1_combout\ $end
$var wire 1 ;" \inst334|ALT_INV_MSC0~0_combout\ $end
$var wire 1 <" \inst334|ALT_INV_MSA1~0_combout\ $end
$var wire 1 =" \inst334|ALT_INV_MSB1~combout\ $end
$var wire 1 >" \inst334|ALT_INV_MSA0~0_combout\ $end
$var wire 1 ?" \inst334|ALT_INV_D1~0_combout\ $end
$var wire 1 @" \inst334|ALT_INV_MSA1~combout\ $end
$var wire 1 A" \inst13|inst42|sub|ALT_INV_105~0_combout\ $end
$var wire 1 B" \inst13|ALT_INV_inst16~q\ $end
$var wire 1 C" \inst13|ALT_INV_inst36~q\ $end
$var wire 1 D" \inst13|ALT_INV_inst18~q\ $end
$var wire 1 E" \inst13|ALT_INV_inst33~q\ $end
$var wire 1 F" \inst13|ALT_INV_inst30~q\ $end
$var wire 1 G" \inst13|ALT_INV_inst12~q\ $end
$var wire 1 H" \inst13|ALT_INV_inst~q\ $end
$var wire 1 I" \inst13|ALT_INV_inst27~q\ $end
$var wire 1 J" \ALT_INV_inst5~q\ $end
$var wire 1 K" \ALT_INV_inst4~q\ $end
$var wire 1 L" \inst14|sub|ALT_INV_9~q\ $end
$var wire 1 M" \inst14|sub|ALT_INV_87~q\ $end
$var wire 1 N" \ALT_INV_inst27~q\ $end
$var wire 1 O" \ALT_INV_inst3~q\ $end
$var wire 1 P" \inst334|ALT_INV_PCINC~0_combout\ $end
$var wire 1 Q" \ALT_INV_inst21~q\ $end
$var wire 1 R" \ALT_INV_inst17~q\ $end
$var wire 1 S" \inst13|inst47|sub|ALT_INV_81~2_combout\ $end
$var wire 1 T" \inst13|inst48|sub|ALT_INV_81~1_combout\ $end
$var wire 1 U" \inst13|inst50|sub|ALT_INV_81~0_combout\ $end
$var wire 1 V" \inst7|altsyncram_component|auto_generated|ALT_INV_ram_block1a9\ $end
$var wire 1 W" \inst7|altsyncram_component|auto_generated|ALT_INV_ram_block1a10\ $end
$var wire 1 X" \inst7|altsyncram_component|auto_generated|ALT_INV_ram_block1a11\ $end
$var wire 1 Y" \inst7|altsyncram_component|auto_generated|ALT_INV_ram_block1a8~portadataout\ $end
$var wire 1 Z" \inst13|ALT_INV_inst36~DUPLICATE_q\ $end
$var wire 1 [" \inst13|ALT_INV_inst30~DUPLICATE_q\ $end
$var wire 1 \" \inst14|sub|ALT_INV_99~DUPLICATE_q\ $end
$var wire 1 ]" \inst14|sub|ALT_INV_110~DUPLICATE_q\ $end
$var wire 1 ^" \ALT_INV_inst21~DUPLICATE_q\ $end
$upscope $end
$upscope $end
$enddefinitions $end
#0
$dumpvars
00
01
02
07
08
09
1:
0;
0G
0H
0I
0J
0S
0T
1U
xV
1W
1X
1Y
1Z
1[
1\
1]
0^
0_
0`
0a
0u
0v
0w
0x
0y
0z
0{
0|
xJ!
0K!
1L!
0M!
0N!
0O!
0P!
0Q!
0R!
0S!
0T!
0U!
0V!
0W!
0X!
0Y!
1Z!
0[!
0\!
0]!
0^!
0_!
0`!
0a!
0b!
0c!
0d!
1e!
0f!
0g!
0h!
0i!
1j!
1k!
0l!
0m!
0n!
0o!
0p!
0q!
0r!
0s!
0t!
0u!
1v!
0w!
0x!
0y!
0z!
0{!
0|!
1}!
0~!
0!"
0""
0#"
0$"
0%"
0&"
0'"
0("
0)"
0*"
0+"
0,"
0-"
0."
0/"
00"
11"
12"
03"
14"
05"
16"
17"
18"
19"
1:"
1;"
1<"
0="
0>"
1?"
1@"
1A"
1B"
1C"
1D"
1E"
1F"
1G"
1H"
1I"
1J"
1K"
1L"
1M"
1N"
1O"
0P"
1Q"
1R"
1S"
1T"
1U"
1V"
1W"
1X"
1Y"
1Z"
1["
1\"
1]"
1^"
0b
0c
0d
0e
0f
1g
1h
1i
1j
1k
0l
0m
1n
1o
1p
0q
0r
0s
0t
0}
1~
1!!
0"!
0#!
0$!
0%!
0&!
0'!
0(!
0)!
0*!
0+!
0,!
0-!
0.!
0/!
00!
01!
06!
07!
08!
09!
0:!
0;!
0<!
0=!
0>!
0?!
0@!
0A!
0B!
0C!
0D!
0E!
0F!
0G!
0H!
0I!
02!
03!
04!
05!
0!
1"
1#
1$
1%
1&
0'
0(
1)
1*
1+
0,
0-
0.
0/
03
04
05
06
0<
1=
1>
0?
0@
0A
0B
0C
0D
0E
0F
0K
0L
0M
0N
0O
0P
0Q
0R
$end
#10000
1;
1a
1K!
1O!
#10001
1I!
1a!
0Y"
1e
16
#20000
0;
0a
0K!
0O!
#30000
1;
1a
1K!
1O!
#40000
0;
0a
0K!
0O!
#50000
1;
1a
1K!
1O!
#60000
0;
0a
0K!
0O!
#70000
1;
1a
1K!
1O!
#75000
1S
1_
1M!
#80000
0;
0a
0K!
0O!
#90000
1;
1a
1K!
1O!
1N!
0N"
1[!
1`!
1b!
0L!
0J"
0Q"
0^"
1`
1\!
0e!
1g!
1c!
0?"
1P"
11
1x
1z
0Z!
0j!
17
1I
1>"
1u
0]
1*"
1G
0:
0~
0=
#100000
0;
0a
0K!
0O!
#110000
1;
1a
1K!
1O!
0N!
1N"
1L!
0`
01
#120000
0;
0a
0K!
0O!
#130000
1;
1a
1K!
1O!
1N!
0N"
0[!
1]!
0`!
1d!
1+"
0L!
0B"
0R"
1Q"
0L"
1^"
15!
1`
1P!
0\!
0c!
1)"
0U"
1?"
11
1-!
1y
1t
0z
1N
1J
1/
0I
1)!
1F
#140000
0;
0a
0K!
0O!
#150000
1;
1a
1K!
1O!
0N!
1N"
1L!
0`
01
#150001
1G!
1H!
1X!
1^!
0V"
0W"
1!"
1&"
1d
1c
15
14
#160000
0;
0a
0K!
0O!
#170000
1;
1a
1K!
1O!
1N!
0N"
1Q!
0]!
0d!
1""
1'"
0L!
0D"
0G"
1R"
1L"
0M"
05!
14!
1`
1e!
0g!
1j!
1~!
1z!
1#"
1$"
1%"
07"
0T"
08"
04"
0S"
0>"
0P"
11
1,!
1+!
0y
0t
1s
1Z!
1M
1L
0J
0/
1.
1(!
1'!
1~
0u
1]
1E
1D
1=
0G
1:
#180000
0;
0a
0K!
0O!
#190000
1;
1a
1K!
1O!
0N!
1N"
1L!
0`
01
#190001
0G!
0H!
0I!
0X!
0^!
0a!
1Y"
1V"
1W"
0e
0d
0c
06
05
04
#200000
0;
0a
0K!
0O!
#210000
1;
1a
1K!
1O!
1N!
0N"
1[!
1`!
0b!
0L!
1J"
0Q"
0^"
1`
1\!
0e!
1g!
0k!
1="
1P"
11
0x
1z
0Z!
1l!
1o!
1-"
07
1I
0!!
1u
0]
1"!
0>
1G
0:
1?
#220000
0;
0a
0K!
0O!
#230000
1;
1a
1K!
1O!
0N!
1N"
1L!
0`
01
#240000
0;
0a
0K!
0O!
#250000
1;
1a
1K!
1O!
1N!
0N"
0[!
1]!
0`!
1m!
1n!
1p!
1,"
1."
0L!
0C"
0Z"
0F"
0["
0E"
1Q"
0L"
1^"
15!
1`
1e!
0g!
1k!
0}!
1/"
0A"
15"
0="
0P"
11
11!
1/!
10!
1t
0z
1Z!
1R
1Q
1P
1/
0I
1!!
0u
1]
0"!
1>
0G
1:
0?
#260000
0;
0a
0K!
0O!
#270000
1;
1a
1K!
1O!
0N!
1N"
1L!
0`
01
#270001
1I!
1a!
0Y"
1e
16
#280000
0;
0a
0K!
0O!
#290000
1;
1a
1K!
1O!
1N!
0N"
1[!
1`!
1b!
0L!
0J"
0Q"
0^"
1`
0P!
1S!
0\!
0e!
1g!
1c!
0?"
1P"
11
1x
1z
0Z!
0j!
17
1I
1>"
1u
0]
0!"
0&"
1G
0:
0~
0=
#300000
0;
0a
0K!
0O!
#310000
1;
1a
1K!
1O!
0N!
1N"
1L!
0`
01
#320000
0;
0a
0K!
0O!
#330000
1;
1a
1K!
1O!
1N!
0N"
0Q!
1R!
1T!
0[!
0]!
0`!
1d!
0""
0'"
0L!
1D"
1G"
0R"
1Q"
1L"
1^"
0\"
1M"
05!
04!
13!
1`
1\!
0c!
0~!
0z!
0#"
0%"
17"
18"
14"
1S"
1?"
11
0,!
0+!
1y
0t
0z
1r
0s
0M
0L
1J
0/
0.
1-
0I
0(!
0'!
0E
0D
#340000
0;
0a
0K!
0O!
#350000
1;
1a
1K!
1O!
0N!
1N"
1L!
0`
01
#350001
1H!
1^!
0V"
1&"
1d
15
#360000
0;
0a
0K!
0O!
#370000
1;
1a
1K!
1O!
1N!
0N"
1]!
0d!
1'"
0L!
0D"
1R"
0L"
15!
1`
1e!
0g!
1j!
1z!
1#"
1%"
07"
08"
04"
0>"
0P"
11
1,!
0y
1t
1Z!
1M
0J
1/
1(!
1~
0u
1]
1E
1=
0G
1:
#380000
0;
0a
0K!
0O!
#390000
1;
1a
1K!
1O!
0N!
1N"
1L!
0`
01
#400000
0;
0a
0K!
0O!
#410000
1;
1a
1K!
1O!
1N!
0N"
1[!
1_!
1`!
0L!
0Q"
0K"
0^"
1`
1P!
0\!
0e!
1g!
1i!
1{!
0<"
0@"
1P"
11
1w
1z
0Z!
0v!
0)"
1}!
1~!
18
1I
0S"
05"
1U"
13"
1$!
1}
1#!
1u
0]
0*"
1!"
1A
1@
1<
1G
0:
1'!
0)!
0F
1D
#420000
0;
0a
0K!
0O!
#430000
1;
1a
1K!
1O!
0N!
1N"
1L!
0`
01
#440000
0;
0a
0K!
0O!
#450000
1;
1a
1K!
1O!
1N!
0N"
1Q!
0[!
0]!
0`!
1""
0+"
0L!
1B"
0G"
1Q"
1L"
1^"
0M"
05!
14!
1`
1e!
0g!
0i!
0{!
1w!
0#"
0$"
1T"
18"
09"
1<"
1@"
0P"
11
0-!
1+!
0t
0z
1s
1Z!
1v!
0}!
1$"
0N
1L
0/
1.
0I
0T"
15"
03"
1&!
0$!
0}
0#!
0u
1]
0w!
1C
0A
0@
0<
0G
1:
19"
0&!
0C
#460000
0;
0a
0K!
0O!
#470000
1;
1a
1K!
1O!
0N!
1N"
1L!
0`
01
#470001
1G!
0H!
0I!
1X!
0^!
0a!
1Y"
1V"
0W"
0e
0d
1c
06
05
14
#480000
0;
0a
0K!
0O!
#490000
1;
1a
1K!
1O!
1N!
0N"
1Y!
1[!
0_!
1`!
0b!
0L!
1J"
0Q"
1K"
0^"
0O"
1`
1\!
0e!
1g!
1i!
1s!
1t!
1("
06"
0;"
0:"
0@"
1P"
11
0x
0w
1z
1^
0Z!
0v!
1u!
0z!
0$"
1)"
07
08
1I
19
0U"
1T"
14"
02"
13"
1%!
1}
1#!
1u
0]
1w!
0%"
1*"
1B
1@
1<
1G
0:
17"
09"
1)!
1x!
0&"
1F
0(!
1&!
0E
1C
#500000
0;
0a
0K!
0O!
#510000
1;
1a
1K!
1O!
0N!
1N"
1L!
0`
01
#520000
0;
0a
0K!
0O!
#530000
1;
1a
1K!
1O!
1N!
0N"
0[!
1]!
0`!
1y!
0'"
1+"
0L!
0B"
1D"
0H"
1Q"
0L"
1^"
15!
1`
1e!
0g!
0i!
0s!
0t!
1v!
10"
1z!
0("
0)"
1U"
16"
04"
03"
1;"
1:"
1@"
0P"
11
1-!
0,!
1*!
1t
0z
1Z!
0v!
0u!
0z!
1$"
0w!
1)"
1N
0M
1K
1/
0I
0U"
19"
0T"
14"
12"
13"
0)!
1{
0%!
0}
0#!
0u
1]
1w!
0F
12
0B
0@
0<
0G
1:
09"
1)!
0&!
1F
0C
1&!
1C
#540000
0;
0a
0K!
0O!
#550000
1;
1a
1K!
1O!
0N!
1N"
1L!
0`
01
#550001
0G!
1H!
0X!
1^!
0V"
1W"
1d
0c
15
04
#560000
0;
0a
0K!
0O!
#570000
1;
1a
1K!
1O!
1N!
0N"
0Y!
1[!
1_!
1`!
0L!
0Q"
0K"
0^"
1O"
1`
0P!
0S!
1V!
0\!
0e!
1g!
1i!
1t!
1{!
0<"
0;"
0@"
1P"
11
1w
1z
0^
0Z!
1v!
0)"
1u!
0w!
1z!
1%"
1}!
0~!
18
1I
09
1S"
05"
07"
04"
19"
02"
1U"
03"
1$!
1%!
1}
1#!
1u
0]
0*"
0x!
1~!
1&"
0!"
1B
1A
1@
1<
1G
0:
0S"
0'!
1(!
0&!
0)!
1!"
0F
1E
0D
0C
1'!
1D
#580000
0;
0a
0K!
0O!
#590000
1;
1a
1K!
1O!
0N!
1N"
1L!
0`
01
#600000
0;
0a
0K!
0O!
#610000
1;
1a
1K!
1O!
1N!
0N"
0Q!
0R!
0T!
1U!
1W!
0[!
0]!
0`!
0y!
1'"
0+"
0L!
1B"
0D"
1H"
1Q"
1L"
1^"
0]"
1\"
1M"
05!
04!
03!
12!
1`
1e!
0g!
0i!
0t!
0{!
0v!
00"
0z!
14"
13"
1<"
1;"
1@"
0P"
11
0-!
1,!
0*!
0t
0z
1q
0r
0s
1Z!
1v!
1)"
0u!
1z!
0}!
0N
1M
0K
0/
0.
0-
1,
0I
0)"
15"
04"
12"
0U"
03"
0{
0$!
0%!
0}
0#!
0u
1]
1U"
02
0B
0A
0@
0<
0G
1:
1)!
0)!
1F
0F
#620000
0;
0a
0K!
0O!
#630000
1;
1a
1K!
1O!
0N!
1N"
1L!
0`
01
#630001
0H!
0^!
1V"
0d
05
#640000
0;
0a
0K!
0O!
#650000
1;
1a
1K!
1O!
1N!
0N"
1[!
0_!
1`!
0L!
0Q"
1K"
0^"
1`
1\!
0e!
1g!
0k!
1="
1P"
11
0w
1z
0Z!
0-"
08
1I
0!!
1u
0]
1"!
0>
1G
0:
1?
#660000
0;
0a
0K!
0O!
#670000
1;
1a
1K!
1O!
0N!
1N"
1L!
0`
01
#680000
0;
0a
0K!
0O!
#690000
1;
1a
1K!
1O!
1N!
0N"
0[!
1]!
0`!
0,"
0."
0L!
1C"
1Z"
1Q"
0L"
1^"
15!
1`
1e!
0g!
1k!
0="
0P"
11
01!
1t
0z
1Z!
0R
1/
0I
1!!
0u
1]
0"!
1>
0G
1:
0?
#700000
0;
0a
0K!
0O!
#710000
1;
1a
1K!
1O!
0N!
1N"
1L!
0`
01
#710001
1G!
1I!
1X!
1a!
0Y"
0W"
1e
1c
16
14
#720000
0;
0a
0K!
0O!
#730000
1;
1a
1K!
1O!
1N!
0N"
1Y!
1[!
1`!
1b!
0L!
0J"
0Q"
0^"
0O"
1`
1P!
0\!
0e!
1g!
1c!
0?"
1P"
11
1x
1z
1^
17
1I
19
1u
0]
1G
0:
#740000
0;
0a
0K!
0O!
#750000
1;
1a
1K!
1O!
0N!
1N"
1L!
0`
01
#760000
0;
0a
0K!
0O!
#770000
1;
1a
1K!
1O!
1N!
0N"
1Q!
0]!
1d!
0L!
0R"
1L"
0M"
05!
14!
1`
0P!
1S!
0V!
1\!
0c!
0g!
1h!
1?"
11
1y
0t
1s
0Z!
1J
0/
1.
1v
0u
1H
0G
#780000
0;
0a
0K!
0O!
#790000
1;
1a
1K!
1O!
0N!
1N"
1L!
0`
01
#790001
0G!
0I!
0X!
0a!
1Y"
1W"
0e
0c
06
04
#800000
0;
0a
0K!
0O!
#810000
1;
1a
1K!
1O!
1N!
0N"
0Q!
1R!
1T!
0U!
0W!
0[!
1]!
0`!
0d!
0L!
1R"
1Q"
0L"
1^"
1]"
0\"
1M"
15!
04!
13!
02!
1`
1e!
0h!
0P"
11
0y
1t
0z
0q
1r
0s
1Z!
0J
1/
0.
1-
0,
0I
0v
1]
0H
1:
#820000
0;
0a
0K!
0O!
#830000
1;
1a
1K!
1O!
0N!
1N"
1L!
0`
01
#830001
1H!
1I!
1^!
1a!
0Y"
0V"
1e
1d
16
15
#840000
0;
0a
0K!
0O!
#850000
1;
1a
1K!
1O!
1N!
0N"
0Y!
1[!
1_!
1`!
0L!
0Q"
0K"
0^"
1O"
1`
1P!
0\!
0e!
1g!
1i!
1{!
0<"
0@"
1P"
11
1w
1z
0^
0Z!
0v!
1w!
1}!
0$"
18
1I
09
1T"
05"
09"
13"
1$!
1}
1#!
1u
0]
1x!
0%"
1A
1@
1<
1G
0:
17"
1&!
0&"
1C
0(!
0E
#860000
0;
0a
0K!
0O!
#870000
1;
1a
1K!
1O!
0N!
1N"
1L!
0`
01
#880000
0;
0a
0K!
0O!
#890000
1;
1a
1K!
1O!
1N!
0N"
1Q!
0[!
0]!
0`!
1y!
0'"
0L!
1D"
0H"
1Q"
1L"
1^"
0M"
05!
14!
1`
1e!
0g!
0i!
0{!
1v!
10"
0z!
1#"
0/"
1A"
08"
14"
03"
1<"
1@"
0P"
11
0,!
1*!
0t
0z
1s
1Z!
0w!
1$"
0v!
0M
1K
0/
1.
0I
13"
0T"
19"
1{
0$!
0}
0#!
0u
1]
1w!
12
0A
0@
0<
0G
1:
09"
0&!
0C
1&!
1C
#900000
0;
0a
0K!
0O!
#910000
1;
1a
1K!
1O!
0N!
1N"
1L!
0`
01
#910001
1G!
0H!
0I!
1X!
0^!
0a!
1Y"
1V"
0W"
0e
0d
1c
06
05
14
#920000
0;
0a
0K!
0O!
#930000
1;
1a
1K!
1O!
1N!
0N"
1Y!
1[!
0_!
1`!
0b!
0L!
1J"
0Q"
1K"
0^"
0O"
1`
1\!
0e!
1g!
1i!
1s!
1t!
0;"
0:"
0@"
1P"
11
0x
0w
1z
1^
0Z!
1v!
1u!
1z!
0~!
1%"
07
08
1I
19
07"
1S"
04"
02"
03"
1%!
1}
1#!
1u
0]
0w!
0!"
1&"
1B
1@
1<
1G
0:
19"
1(!
0'!
0x!
1E
0D
0&!
0C
#940000
0;
0a
0K!
0O!
#950000
1;
1a
1K!
1O!
0N!
1N"
1L!
0`
01
#960000
0;
0a
0K!
0O!
#970000
1;
1a
1K!
1O!
1N!
0N"
0[!
1]!
0`!
0y!
0""
1'"
0L!
0D"
1G"
1H"
1Q"
0L"
1^"
15!
1`
1e!
0g!
0i!
0s!
0t!
1~!
00"
0z!
0}!
0#"
1/"
0A"
18"
15"
14"
0S"
1;"
1:"
1@"
0P"
11
1,!
0+!
0*!
1t
0z
1Z!
0u!
1z!
0~!
1M
0L
0K
1/
0I
1S"
04"
12"
0{
1'!
0%!
0}
0#!
0u
1]
02
1D
0B
0@
0<
0G
1:
0'!
0D
#980000
0;
0a
0K!
0O!
#990000
1;
1a
1K!
1O!
0N!
1N"
1L!
0`
01
#990001
0G!
1H!
0X!
1^!
0V"
1W"
1d
0c
15
04
#1000000
0;
0a
0K!
0O!
