Lab4/Lab4_ALU/simulation/qsim/Lab4_ALU.msim.vcd
$comment
	File created using the following command:
		vcd file Lab4_ALU.msim.vcd -direction
$end
$date
	Tue Oct 22 07:28:32 2019
$end
$version
	ModelSim Version 10.5b
$end
$timescale
	1ps
$end

$scope module Lab4_ALU_vlg_vec_tst $end
$var reg 4 ! A [3:0] $end
$var reg 4 " B [3:0] $end
$var reg 1 # CIN $end
$var reg 2 $ S [1:0] $end
$var wire 1 % COUT $end
$var wire 1 & F [3] $end
$var wire 1 ' F [2] $end
$var wire 1 ( F [1] $end
$var wire 1 ) F [0] $end

$scope module i1 $end
$var wire 1 * gnd $end
$var wire 1 + vcc $end
$var wire 1 , unknown $end
$var tri1 1 - devclrn $end
$var tri1 1 . devpor $end
$var tri1 1 / devoe $end
$var wire 1 0 ~QUARTUS_CREATED_GND~I_combout $end
$var wire 1 1 ~QUARTUS_CREATED_UNVM~~busy $end
$var wire 1 2 COUT~output_o $end
$var wire 1 3 F[3]~output_o $end
$var wire 1 4 F[2]~output_o $end
$var wire 1 5 F[1]~output_o $end
$var wire 1 6 F[0]~output_o $end
$var wire 1 7 A[3]~input_o $end
$var wire 1 8 B[3]~input_o $end
$var wire 1 9 A[2]~input_o $end
$var wire 1 : B[2]~input_o $end
$var wire 1 ; A[1]~input_o $end
$var wire 1 < B[1]~input_o $end
$var wire 1 = A[0]~input_o $end
$var wire 1 > B[0]~input_o $end
$var wire 1 ? CIN~input_o $end
$var wire 1 @ inst4|sub|104~0_combout $end
$var wire 1 A inst4|sub|105~0_combout $end
$var wire 1 B inst4|sub|106~0_combout $end
$var wire 1 C S[0]~input_o $end
$var wire 1 D S[1]~input_o $end
$var wire 1 E inst5|4~0_combout $end
$var wire 1 F inst14~0_combout $end
$var wire 1 G inst4|sub|82~0_combout $end
$var wire 1 H inst5|9~0_combout $end
$var wire 1 I inst5|9~1_combout $end
$var wire 1 J inst5|10~0_combout $end
$var wire 1 K inst4|sub|80~0_combout $end
$var wire 1 L inst5|10~1_combout $end
$var wire 1 M inst6|9~0_combout $end
$var wire 1 N inst4|sub|78~0_combout $end
$var wire 1 O inst6|9~1_combout $end
$var wire 1 P inst6|10~2_combout $end
$var wire 1 Q inst6|10~3_combout $end
$upscope $end
$upscope $end
$enddefinitions $end
#0
$dumpvars
b0 !
b0 "
0#
b0 $
0%
1)
1(
1'
1&
0*
1+
x,
1-
1.
1/
00
z1
02
13
14
15
16
07
08
09
0:
0;
0<
0=
0>
0?
0@
0A
0B
0C
0D
0E
0F
0G
1H
1I
1J
0K
1L
1M
0N
1O
1P
1Q
$end
#50000
b1 !
b1 "
1=
1>
0P
1N
1@
0Q
06
0)
#100000
b11 !
b11 "
b10 !
b10 "
1;
0=
1<
0>
0M
1A
1P
0@
0O
1Q
16
05
0(
1)
#150000
b11 !
b11 "
1=
1>
0P
0N
1@
0Q
06
0)
#200000
b111 !
b111 "
b101 !
b101 "
b100 !
b100 "
19
0;
0=
1:
0<
0>
0J
1B
1M
0A
1P
0@
0L
1O
1Q
16
15
04
0'
1(
1)
#250000
b101 !
b101 "
1=
1>
0P
1N
1@
0Q
06
0)
#300000
b111 !
b111 "
b110 !
b110 "
1;
0=
1<
0>
0M
1A
1P
0@
0O
1Q
16
05
0(
1)
#350000
b111 !
b111 "
1=
1>
0P
0N
1@
0Q
06
0)
#400000
b1111 !
b1111 "
b1011 !
b1011 "
b1001 !
b1001 "
b1000 !
b1000 "
17
09
0;
0=
18
0:
0<
0>
0H
1J
0B
1M
0A
1P
0@
0I
1L
1O
1Q
16
15
14
03
0&
1'
1(
1)
#450000
b1001 !
b1001 "
1=
1>
0P
1N
1@
0Q
06
0)
#500000
b1011 !
b1011 "
b1010 !
b1010 "
1;
0=
1<
0>
0M
1A
1P
0@
0O
1Q
16
05
0(
1)
#550000
b1011 !
b1011 "
1=
1>
0P
0N
1@
0Q
06
0)
#600000
b1111 !
b1111 "
b1101 !
b1101 "
b1100 !
b1100 "
19
0;
0=
1:
0<
0>
0J
1B
1M
0A
1P
0@
0L
1O
1Q
16
15
04
0'
1(
1)
#650000
b1101 !
b1101 "
1=
1>
0P
1N
1@
0Q
06
0)
#700000
b1111 !
b1111 "
b1110 !
b1110 "
1;
0=
1<
0>
0M
1A
1P
0@
0O
1Q
16
05
0(
1)
#750000
b1111 !
b1111 "
1=
1>
0P
0N
1@
0Q
06
0)
#800000
b1 $
b111 !
b111 "
b11 !
b11 "
b1 !
b1 "
b0 !
b0 "
1C
07
09
0;
0=
08
0:
0<
0>
0B
0A
0@
#850000
b1 !
b1 "
1=
1>
1P
1N
1@
1Q
16
1)
#900000
b11 !
b11 "
b10 !
b10 "
1;
0=
1<
0>
1M
1A
0P
0@
1O
0Q
06
15
1(
0)
#950000
b11 !
b11 "
1=
1>
1P
0N
1@
1Q
16
1)
#1000000
b111 !
b111 "
b101 !
b101 "
b100 !
b100 "
19
0;
0=
1:
0<
0>
1J
1B
0M
0A
0P
0@
1L
0O
0Q
06
05
14
1'
0(
0)
#1050000
b101 !
b101 "
1=
1>
1P
1N
1@
1Q
16
1)
#1100000
b111 !
b111 "
b110 !
b110 "
1;
0=
1<
0>
1M
1A
0P
0@
1O
0Q
06
15
1(
0)
#1150000
b111 !
b111 "
1=
1>
1P
0N
1@
1Q
16
1)
#1200000
b1111 !
b1111 "
b1011 !
b1011 "
b1001 !
b1001 "
b1000 !
b1000 "
17
09
0;
0=
18
0:
0<
0>
1H
0J
0B
0M
0A
0P
0@
1I
0L
0O
0Q
06
05
04
13
1&
0'
0(
0)
#1250000
b1001 !
b1001 "
1=
1>
1P
1N
1@
1Q
16
1)
#1300000
b1011 !
b1011 "
b1010 !
b1010 "
1;
0=
1<
0>
1M
1A
0P
0@
1O
0Q
06
15
1(
0)
#1350000
b1011 !
b1011 "
1=
1>
1P
0N
1@
1Q
16
1)
#1400000
b1111 !
b1111 "
b1101 !
b1101 "
b1100 !
b1100 "
19
0;
0=
1:
0<
0>
1J
1B
0M
0A
0P
0@
1L
0O
0Q
06
05
14
1'
0(
0)
#1450000
b1101 !
b1101 "
1=
1>
1P
1N
1@
1Q
16
1)
#1500000
b1111 !
b1111 "
b1110 !
b1110 "
1;
0=
1<
0>
1M
1A
0P
0@
1O
0Q
06
15
1(
0)
#1550000
b1111 !
b1111 "
1=
1>
1P
0N
1@
1Q
16
1)
#1600000
b11 $
b10 $
b111 !
b111 "
b11 !
b11 "
b1 !
b1 "
b0 !
b0 "
1D
0C
07
09
0;
0=
08
0:
0<
0>
0P
0M
0J
0H
0B
0A
0@
0Q
0O
0L
0I
03
04
05
06
0)
0(
0'
0&
#1650000
b1 !
b1 "
1=
1>
1P
1N
1@
1Q
16
1)
#1700000
b11 !
b11 "
b10 !
b10 "
1;
0=
1<
0>
1M
1A
0P
0@
1O
0Q
06
15
1(
0)
#1750000
b11 !
b11 "
1=
1>
1P
0N
1@
1Q
16
1)
#1800000
b111 !
b111 "
b101 !
b101 "
b100 !
b100 "
19
0;
0=
1:
0<
0>
1J
1B
0M
0A
0P
0@
1L
0O
0Q
06
05
14
1'
0(
0)
#1850000
b101 !
b101 "
1=
1>
1P
1N
1@
1Q
16
1)
#1900000
b111 !
b111 "
b110 !
b110 "
1;
0=
1<
0>
1M
1A
0P
0@
1O
0Q
06
15
1(
0)
#1950000
b111 !
b111 "
1=
1>
1P
0N
1@
1Q
16
1)
#2000000
b1111 !
b1111 "
b1011 !
b1011 "
b1001 !
b1001 "
b1000 !
b1000 "
17
09
0;
0=
18
0:
0<
0>
1H
0J
0B
0M
0A
0P
0@
1I
0L
0O
0Q
06
05
04
13
1&
0'
0(
0)
#2050000
b1001 !
b1001 "
1=
1>
1P
1N
1@
1Q
16
1)
#2100000
b1011 !
b1011 "
b1010 !
b1010 "
1;
0=
1<
0>
1M
1A
0P
0@
1O
0Q
06
15
1(
0)
#2150000
b1011 !
b1011 "
1=
1>
1P
0N
1@
1Q
16
1)
#2200000
b1111 !
b1111 "
b1101 !
b1101 "
b1100 !
b1100 "
19
0;
0=
1:
0<
0>
1J
1B
0M
0A
0P
0@
1L
0O
0Q
06
05
14
1'
0(
0)
#2250000
b1101 !
b1101 "
1=
1>
1P
1N
1@
1Q
16
1)
#2300000
b1111 !
b1111 "
b1110 !
b1110 "
1;
0=
1<
0>
1M
1A
0P
0@
1O
0Q
06
15
1(
0)
#2350000
b1111 !
b1111 "
1=
1>
1P
0N
1@
1Q
16
1)
#2400000
b11 $
b111 !
b111 "
b11 !
b11 "
b1 !
b1 "
b0 !
1C
07
09
0;
0=
08
0:
0<
0M
0J
0H
1E
0B
0A
0@
0O
0L
0I
03
04
05
0(
0'
0&
#2450000
b1 !
1=
0P
1N
1@
0Q
1O
15
06
0)
1(
#2500000
b0 "
b11 !
b10 "
b10 !
1<
0>
1;
0=
1A
0@
0O
05
0(
1L
14
1'
#2550000
b11 "
b11 !
1>
1=
0N
1@
1O
15
1(
#2600000
b111 !
b111 "
b101 !
b101 "
b100 "
b100 !
19
0;
0=
1:
0<
0>
1B
0A
0@
0O
05
0(
1I
0L
04
13
1&
0'
#2650000
b101 "
b101 !
1>
1=
1N
1@
1O
15
1(
#2700000
b111 !
b111 "
b110 "
b110 !
1;
0=
1<
0>
1A
0@
0O
05
0(
1L
14
1'
#2750000
b111 "
b111 !
1>
1=
0N
1@
1O
15
1(
#2800000
b1111 !
b1111 "
b1011 !
b1011 "
b1001 !
b1001 "
b1000 "
b1000 !
17
09
0;
0=
18
0:
0<
0>
0B
0A
0@
1F
0O
05
12
1%
0(
0I
0L
04
03
0&
0'
#2850000
b1001 "
b1001 !
1>
1=
1N
1@
1O
15
1(
#2900000
b1011 !
b1011 "
b1010 "
b1010 !
1;
0=
1<
0>
1A
0@
0O
05
0(
1L
14
1'
#2950000
b1011 "
b1011 !
1>
1=
0N
1@
1O
15
1(
#3000000
b1111 !
b1111 "
b1101 !
b1101 "
b1100 "
b1100 !
19
0;
0=
1:
0<
0>
1B
0A
0@
0O
05
0(
1I
0L
04
13
1&
0'
#3050000
b1101 "
b1101 !
1>
1=
1N
1@
1O
15
1(
#3100000
b1111 !
b1111 "
b1110 "
b1110 !
1;
0=
1<
0>
1A
0@
0O
05
0(
1L
14
1'
#3150000
b1111 "
b1111 !
1>
1=
0N
1@
1O
15
1(
#3200000
b1 $
b0 $
b111 !
b111 "
b11 !
b11 "
b1 !
b1 "
b0 "
b0 !
0D
0C
07
09
0;
0=
08
0:
0<
0>
1P
1M
1J
1H
0E
0B
0A
0@
0F
0O
05
02
0%
0(
1Q
1O
15
16
1)
1(
#3250000
b1 "
b1 !
1>
1=
0P
1N
1@
0Q
06
0)
#3300000
b11 !
b11 "
b10 "
b10 !
1;
0=
1<
0>
0M
1A
1P
0@
0O
1Q
16
05
0(
1)
#3350000
b11 "
b11 !
1>
1=
0P
0N
1@
0Q
06
0)
#3400000
b111 !
b111 "
b101 !
b101 "
b100 "
b100 !
19
0;
0=
1:
0<
0>
0J
1B
1M
0A
1P
0@
0L
1O
1Q
16
15
04
0'
1(
1)
#3450000
b101 "
b101 !
1>
1=
0P
1N
1@
0Q
06
0)
#3500000
b111 !
b111 "
b110 "
b110 !
1;
0=
1<
0>
0M
1A
1P
0@
0O
1Q
16
05
0(
1)
#3550000
b111 "
b111 !
1>
1=
0P
0N
1@
0Q
06
0)
